species,mode,age,pipeline_class
soybean,cylinder,"2, 3, 4, 5, 6, 7, 8",DicotPipeline
canola,cylinder,"2, 3, 4, 5, 6, 7, 8, 9, 10, 11, 12, 13",DicotPipeline
pennycress,cylinder,"2, 3, 4, 5, 6, 7, 8, 9, 10, 11, 12, 13, 14",DicotPipeline
arabidopsis,multiplant cylinder,"2, 3, 4, 5, 6, 7, 8, 9, 10, 11, 12, 13, 14",MultipleDicotPipeline
arabidopsis,cylinder,"2, 3, 4, 5, 6, 7, 8, 9, 10, 11, 12, 13, 14",DicotPipeline
arabidopsis,plate,"7, 8, 9, 10, 11, 12, 13, 14",MultipleDicotPlatePipeline
rice,cylinder,"2, 3, 4, 5",YoungerMonocotPipeline
rice,cylinder,"6, 7, 8, 9, 10",OlderMonocotPipeline
